<svg xmlns="http://www.w3.org/2000/svg" width="8.69" height="15.55" viewBox="0 0 8.69 15.55">
  <g id="Grupo_1" data-name="Grupo 1" transform="translate(-158.098 -87.315)">
    <rect id="Rectángulo_141" data-name="Rectángulo 141" width="1.257" height="10.688" rx="0.629" transform="translate(158.098 95.048) rotate(-43)"/>
    <rect id="Rectángulo_142" data-name="Rectángulo 142" width="1.257" height="10.688" rx="0.629" transform="translate(158.971 95.523) rotate(-133)"/>
  </g>
</svg>
