<svg xmlns="http://www.w3.org/2000/svg" width="14.142" height="8.485" viewBox="0 0 14.142 8.485">
  <g id="Grupo_531" data-name="Grupo 531" transform="translate(316.784 -132.936) rotate(135)">
    <rect id="Rectángulo_73" data-name="Rectángulo 73" width="2" height="10" rx="1" transform="translate(313 115)" fill="#3b76fb"/>
    <rect id="Rectángulo_74" data-name="Rectángulo 74" width="2" height="10" rx="1" transform="translate(323 123) rotate(90)" fill="#3b76fb"/>
  </g>
</svg>
