<svg xmlns="http://www.w3.org/2000/svg" width="5.402" height="8.848" viewBox="0 0 5.402 8.848">
  <path id="Trazado_686" data-name="Trazado 686" d="M1.617,10.158V9.725a1.923,1.923,0,0,1,.24-.979,3.148,3.148,0,0,1,.879-.885,3.677,3.677,0,0,0,.812-.715,1.035,1.035,0,0,0,.2-.615.666.666,0,0,0-.281-.58,1.341,1.341,0,0,0-.785-.2,4.508,4.508,0,0,0-2,.574L.035,5.043a5.582,5.582,0,0,1,2.771-.732,2.948,2.948,0,0,1,1.919.58,1.894,1.894,0,0,1,.712,1.547,2.057,2.057,0,0,1-.293,1.113A4.175,4.175,0,0,1,4.031,8.605a3.437,3.437,0,0,0-.712.633.983.983,0,0,0-.149.568v.352Zm-.187,2a.982.982,0,0,1,.264-.744,1.069,1.069,0,0,1,.768-.252,1.039,1.039,0,0,1,.753.258,1.139,1.139,0,0,1,0,1.468,1.02,1.02,0,0,1-.75.267A1.051,1.051,0,0,1,1.7,12.9.976.976,0,0,1,1.43,12.162Z" transform="translate(-0.035 -4.311)" fill="#fff"/>
</svg>
