<svg xmlns="http://www.w3.org/2000/svg" width="19.413" height="19.413" viewBox="0 0 19.413 19.413">
  <g id="Grupo_552" data-name="Grupo 552" transform="translate(10.414 -374.874) rotate(45)">
    <rect id="Rectángulo_197" data-name="Rectángulo 197" width="4.576" height="22.878" rx="2.288" transform="translate(260 274.727) rotate(-90)" fill="#e80352"/>
    <rect id="Rectángulo_198" data-name="Rectángulo 198" width="4.576" height="22.878" rx="2.288" transform="translate(269.151 261)" fill="#e80352"/>
  </g>
</svg>
