<svg xmlns="http://www.w3.org/2000/svg" width="20.033" height="21.574" viewBox="0 0 20.033 21.574">
  <g id="calendar-page-empty" transform="translate(-18.276)">
    <path id="Trazado_684" data-name="Trazado 684" d="M37.851,3.54a1.48,1.48,0,0,0-1.083-.458H35.227V1.926a1.855,1.855,0,0,0-.566-1.36A1.855,1.855,0,0,0,33.3,0h-.77a1.855,1.855,0,0,0-1.36.566,1.854,1.854,0,0,0-.566,1.36V3.082H25.981V1.926a1.855,1.855,0,0,0-.566-1.36A1.855,1.855,0,0,0,24.055,0h-.77a1.855,1.855,0,0,0-1.36.566,1.855,1.855,0,0,0-.566,1.36V3.082H19.817a1.481,1.481,0,0,0-1.084.458,1.481,1.481,0,0,0-.458,1.084v15.41a1.562,1.562,0,0,0,1.541,1.541H36.768a1.563,1.563,0,0,0,1.541-1.541V4.623A1.481,1.481,0,0,0,37.851,3.54ZM32.145,1.926a.37.37,0,0,1,.385-.385h.77a.371.371,0,0,1,.385.385V5.394a.371.371,0,0,1-.385.385h-.77a.37.37,0,0,1-.385-.385Zm-9.246,0a.371.371,0,0,1,.385-.385h.77a.371.371,0,0,1,.385.385V5.394a.371.371,0,0,1-.385.385h-.77a.371.371,0,0,1-.385-.385ZM36.768,20.033H19.817V7.705H36.768Z" fill="#ccc"/>
  </g>
</svg>
