<svg xmlns="http://www.w3.org/2000/svg" width="9.969" height="11.919" viewBox="0 0 9.969 11.919">
  <g id="delete-bin" transform="translate(0 0)">
    <g id="Grupo_907" data-name="Grupo 907">
      <path id="Trazado_677" data-name="Trazado 677" d="M59.6.379h-2.94A.421.421,0,0,0,56.247,0H53.835a.421.421,0,0,0-.419.379h-2.94A.421.421,0,0,0,50.056.8v.8a.421.421,0,0,0,.421.421H59.6a.421.421,0,0,0,.421-.421V.8A.421.421,0,0,0,59.6.379Z" transform="translate(-50.056)" fill="#fff"/>
      <path id="Trazado_678" data-name="Trazado 678" d="M95.34,153.838a.421.421,0,0,0,.421.421h7.364a.421.421,0,0,0,.421-.421v-8.671H95.34Z" transform="translate(-94.458 -142.34)" fill="#fff"/>
    </g>
  </g>
</svg>
