<svg xmlns="http://www.w3.org/2000/svg" width="16.393" height="16.164" viewBox="0 0 16.393 16.164">
  <g id="store-new-badges" transform="translate(0 -4.262)">
    <path id="Trazado_695" data-name="Trazado 695" d="M16.288,13.074l-1.2-1.912a.685.685,0,0,1-.09-.51l.478-2.208a.684.684,0,0,0-.46-.8l-2.151-.69a.684.684,0,0,1-.4-.332l-1.053-2a.684.684,0,0,0-.864-.315l-2.092.855a.685.685,0,0,1-.517,0L5.847,4.313a.684.684,0,0,0-.864.315l-1.053,2a.684.684,0,0,1-.4.332l-2.151.69a.684.684,0,0,0-.46.8L1.4,10.653a.684.684,0,0,1-.09.51l-1.2,1.912a.684.684,0,0,0,.16.905l1.786,1.384a.684.684,0,0,1,.259.448l.306,2.239a.684.684,0,0,0,.7.591l2.258-.087a.685.685,0,0,1,.486.177l1.673,1.518a.684.684,0,0,0,.919,0l1.673-1.518a.683.683,0,0,1,.486-.177l2.257.087a.684.684,0,0,0,.7-.591l.306-2.239a.685.685,0,0,1,.259-.448l1.786-1.384A.684.684,0,0,0,16.288,13.074Z" transform="translate(0 0)" fill="#3b76fb"/>
  </g>
</svg>
